{
  "comments": [
    {
      "comment": "Woah can you see  this?",
      "author": "Evan",
      "id": 2
    },
    {
      "comment": "This is visible right?",
      "author": "Leia",
      "id": 3
    },
    {
      "comment": "This page sucks",
      "author": "Alina",
      "id": 4
    },
    {
      "comment": "Cool stuff",
      "author": "Caroline",
      "id": 5
    },
    {
      "comment": "Hello again!",
      "author": "Alina",
      "id": 6
    },
    {
      "comment": "Oh so it works?",
      "author": "Evan",
      "id": 7
    },
    {
      "comment": "Cool",
      "author": "Evangeline",
      "id": 8
    },
    {
      "comment": "This looks good!",
      "author": "Evelina",
      "id": 9
    }
  ]
}